{
    "ConnectionStrings": {
        "postgreSql": "Host={0};Port={1};Database={2};Username={3};Password={4};Include Error Detail=True"
    },
    "PostgreSqlHost": "localhost",
    "PostgreSqlPort": 5432,
    "PostgreSqlDatabase": "postgres",
    "PostgreSqlUsername": "postgres",
    "PostgreSqlPassword": "Zx123456"
}